%YAML 1.1
%TAG !u! tag:unity3d.com,2011:
--- !u!114 &11400000
MonoBehaviour:
  m_ObjectHideFlags: 0
  m_CorrespondingSourceObject: {fileID: 0}
  m_PrefabInstance: {fileID: 0}
  m_PrefabAsset: {fileID: 0}
  m_GameObject: {fileID: 0}
  m_Enabled: 1
  m_EditorHideFlags: 0
  m_Script: {fileID: 11500000, guid: f4bdaa336168d02429944018cf82606e, type: 3}
  m_Name: DemoGraph
  m_EditorClassIdentifier: 
  <FileName>k__BackingField: Demo
  <Groups>k__BackingField:
  - <ID>k__BackingField: 2a7efd7c-feba-4c6c-b620-2f98637c74b1
    <Name>k__BackingField: Introduction
    <Position>k__BackingField: {x: 306, y: 152}
  - <ID>k__BackingField: 37138105-f900-4086-8742-ddf59f806f38
    <Name>k__BackingField: YesChoice
    <Position>k__BackingField: {x: 993.99994, y: 6.0000153}
  - <ID>k__BackingField: b0e3a917-98a2-4cdb-a42a-99a5043192cb
    <Name>k__BackingField: NoChoice
    <Position>k__BackingField: {x: 989.00006, y: 306.00003}
  <Nodes>k__BackingField:
  - <ID>k__BackingField: 713b2359-387b-42a5-b4cb-87934b2b4205
    <Name>k__BackingField: Choice
    <Text>k__BackingField: Would you like to find for me the sword of destiny?
    <Choices>k__BackingField:
    - <Text>k__BackingField: Yes
      <NodeID>k__BackingField: 8b89117e-47a7-4d53-a91c-ecb42dbfa350
    - <Text>k__BackingField: No
      <NodeID>k__BackingField: 40a132f5-4d0e-4925-99b7-257304d2756c
    <GroupID>k__BackingField: 2a7efd7c-feba-4c6c-b620-2f98637c74b1
    <DialogueType>k__BackingField: 1
    <Position>k__BackingField: {x: 558, y: 211}
  - <ID>k__BackingField: 8b89117e-47a7-4d53-a91c-ecb42dbfa350
    <Name>k__BackingField: Yes
    <Text>k__BackingField: That is so kind of you!
    <Choices>k__BackingField:
    - <Text>k__BackingField: Next Dialogue
      <NodeID>k__BackingField: 
    <GroupID>k__BackingField: 37138105-f900-4086-8742-ddf59f806f38
    <DialogueType>k__BackingField: 0
    <Position>k__BackingField: {x: 1019, y: 65}
  - <ID>k__BackingField: 40a132f5-4d0e-4925-99b7-257304d2756c
    <Name>k__BackingField: No
    <Text>k__BackingField: 'My disappointment is immeasurable and my day is ruined
      ... :(  '
    <Choices>k__BackingField:
    - <Text>k__BackingField: Next Dialogue
      <NodeID>k__BackingField: 
    <GroupID>k__BackingField: b0e3a917-98a2-4cdb-a42a-99a5043192cb
    <DialogueType>k__BackingField: 0
    <Position>k__BackingField: {x: 1014, y: 365}
  - <ID>k__BackingField: 1e25df45-6880-43d5-a66f-87aa48b510c1
    <Name>k__BackingField: Introduction
    <Text>k__BackingField: Hello young adventurer!
    <Choices>k__BackingField:
    - <Text>k__BackingField: Next Dialogue
      <NodeID>k__BackingField: 713b2359-387b-42a5-b4cb-87934b2b4205
    <GroupID>k__BackingField: 2a7efd7c-feba-4c6c-b620-2f98637c74b1
    <DialogueType>k__BackingField: 0
    <Position>k__BackingField: {x: 331, y: 236}
  <OldGroupNames>k__BackingField:
  - Introduction
  - YesChoice
  - NoChoice
  <OldUngroupedNodeNames>k__BackingField: []
  <OldGroupedNodeNames>k__BackingField:
    list:
    - Key: Introduction
      Value:
      - Choice
      - Introduction
    - Key: YesChoice
      Value:
      - Yes
    - Key: NoChoice
      Value:
      - No
